{
  "success": true,
  "code": 200,
  "timestamp": 1534955098193,
  "message": "登录成功",
  "result": {
    "token": "dkasue123kdsaio21ed",
    "status": "success",
    "pageSize": 10,
    "pageNo": 0,
    "totalCount": 57,
    "totalPage": 6,
    "data": [
      {
        "key": 1,
        "no": "No 1",
        "description": "这是一段描述",
        "callNo": 127,
        "status": 2,
        "updatedAt": "1970-06-24 11:51:20",
        "editable": false
      }
    ]
  }
}