{
  "success": true,
  "code": 200,
  "timestamp": 1534955098193,
  "message": "获取村组/片区信息成功",
  "result": {
    "pageSize": 10,
    "pageNo": 0,
    "totalCount": 57,
    "totalPage": 6,
    "list": [
      {
        "key": 1,
        "id": 1,
        "ssxzbm": "10",
        "ssxz": "龙泉镇",
        "sscwbm": "1010",
        "sscw":"大坪村",
        "dybh": "10101001",
        "dymc": "一组",
        "zkhjl": "张三",
        "zrwd": "营业部",
        "zrbs": "财务部，保卫部",
        "zrld": "李四四",
        "fjsl": 0,
        "bz": "的居安思危打的达到阿萨德"
      },
      {
        "key": 2,
        "id": 2,
        "ssxz": "龙泉镇",
        "sscw":"大坪村",
        "dybh": "10101002",
        "dymc": "二组",
        "zkhjl": "张三",
        "zrwd": "营业部",
        "zrbs": "财务部，保卫部",
        "zrld": "李四四",
        "fjsl": 2,
        "bz": "的居安思危打的达到阿萨德"
      },
      {
        "key": 3,
        "id": 3,
        "ssxz": "龙泉镇",
        "sscw":"大坪村",
        "dybh": "10101003",
        "dymc": "三组",
        "zkhjl": "张三",
        "zrwd": "营业部",
        "zrbs": "财务部，保卫部",
        "zrld": "李四四",
        "fjsl": 2,
        "bz": "的居安思危打的达到阿萨德"
      },
      {
        "key": 4,
        "id": 4,
        "ssxz": "十字乡",
        "sscw":"大山仁",
        "dybh": "10101004",
        "dymc": "一组",
        "zkhjl": "李四",
        "zrwd": "营业部",
        "zrbs": "财务部，保卫部",
        "zrld": "王五",
        "fjsl": 2,
        "bz": "的居安思危打的达到阿萨德"
      }
    ]
  }
}