{
  "success": true,
  "code": 200,
  "timestamp": 1534955098193,
  "message": "登录成功",
  "result": {
    "token": "dkasue123kdsaio21ed",
    "status": "success",
    "pageSize": 10,
    "pageNo": 0,
    "totalCount": 57,
    "totalPage": 6,
    "list": [
      {
        "id": 1,
        "title": "asdasdasdkwqeklqwe qwelqwe kqwelk adlsklasdqweqwdasd",
        "status": "published",
        "author": "asdas",
        "display_time": "1970-06-24 11:51:20",
        "pageviews": "4232"
      },
      {
        "id": 2,
        "title": "oiqwelkkqwleklkdalskdaslkdjlqwejoiqweo 达到气温气温可去了我看来看去额度",
        "status": "published",
        "author": "刚发的",
        "display_time": "1970-06-24 11:51:20",
        "pageviews": "4232"
      }
    ]
  }
}